…
``` r
#Cleaned dataset
brfss_cleaned = brfss_smart2010 %>%
  janitor::clean_names() %>%
  filter(topic == "Overall Health") %>% 
  filter(response %in% c("Excellent", "Very good", "Good", "Fair", "Poor")) %>%
  mutate(
    response = forcats::fct_relevel(response, c("Poor", "Fair", "Good", "Very good", "Excellent"))
  ) 
brfss_cleaned
```

    ## # A tibble: 10,625 x 23
    ##     year locationabbr locationdesc class topic question response
    ##    <int> <chr>        <chr>        <chr> <chr> <chr>    <fct>   
    ##  1  2010 AL           AL - Jeffer… Heal… Over… How is … Excelle…
    ##  2  2010 AL           AL - Jeffer… Heal… Over… How is … Very go…
    ##  3  2010 AL           AL - Jeffer… Heal… Over… How is … Good    
    ##  4  2010 AL           AL - Jeffer… Heal… Over… How is … Fair    
    ##  5  2010 AL           AL - Jeffer… Heal… Over… How is … Poor    
    ##  6  2010 AL           AL - Mobile… Heal… Over… How is … Excelle…
    ##  7  2010 AL           AL - Mobile… Heal… Over… How is … Very go…
    ##  8  2010 AL           AL - Mobile… Heal… Over… How is … Good    
    ##  9  2010 AL           AL - Mobile… Heal… Over… How is … Fair    
    ## 10  2010 AL           AL - Mobile… Heal… Over… How is … Poor    
    ## # … with 10,615 more rows, and 16 more variables: sample_size <int>,
    ## #   data_value <dbl>, confidence_limit_low <dbl>,
    ## #   confidence_limit_high <dbl>, display_order <int>,
    ## #   data_value_unit <chr>, data_value_type <chr>,
    ## #   data_value_footnote_symbol <chr>, data_value_footnote <chr>,
    ## #   data_source <chr>, class_id <chr>, topic_id <chr>, location_id <chr>,
    ## #   question_id <chr>, respid <chr>, geo_location <chr>
…
    ## Parsed with column specification:
    ## cols(
    ##   .default = col_double(),
    ##   day = col_character()
    ## )

    ## See spec(...) for full column specifications.

``` r
accel_data
```

    ## # A tibble: 50,400 x 6
    ##     week day_id day    minute activity_count day_type
    ##    <dbl>  <dbl> <fct>   <dbl>          <dbl> <chr>   
    ##  1     1      1 Friday      1           88.4 weekday 
    ##  2     1      1 Friday      2           82.2 weekday 
    ##  3     1      1 Friday      3           64.4 weekday 
    ##  4     1      1 Friday      4           70.0 weekday 
    ##  5     1      1 Friday      5           75.0 weekday 
    ##  6     1      1 Friday      6           66.3 weekday 
    ##  7     1      1 Friday      7           53.8 weekday 
    ##  8     1      1 Friday      8           47.8 weekday 
    ##  9     1      1 Friday      9           55.5 weekday 
    ## 10     1      1 Friday     10           43.0 weekday 
    ## # … with 50,390 more rows
…
